<?xml version="1.0" encoding="utf-8"?>
<!-- Generator: Adobe Illustrator 18.1.0, SVG Export Plug-In . SVG Version: 6.00 Build 0)  -->
<svg version="1.1" id="Layer_1" xmlns="http://www.w3.org/2000/svg" xmlns:xlink="http://www.w3.org/1999/xlink" x="0px" y="0px"
	 viewBox="0 0 18.6 17.8" enable-background="new 0 0 18.6 17.8" xml:space="preserve">
<path fill="#FEDD00" d="M17.9,1c-0.1-0.3-0.4-0.5-0.7-0.5H1.4C1.1,0.5,0.8,0.7,0.7,1C0.6,1.3,0.6,1.6,0.9,1.9l6.1,6.1v6
	c0,0.2,0.1,0.4,0.2,0.6l3.1,3.1c0.1,0.2,0.3,0.2,0.6,0.2c0.1,0,0.2,0,0.3-0.1c0.3-0.1,0.5-0.4,0.5-0.7V7.9l6.1-6.1
	C17.9,1.6,18,1.3,17.9,1z"/>
</svg>
