<?xml version="1.0" encoding="utf-8"?>
<!-- Generator: Adobe Illustrator 18.1.0, SVG Export Plug-In . SVG Version: 6.00 Build 0)  -->
<svg version="1.1" id="Capa_1" xmlns="http://www.w3.org/2000/svg" xmlns:xlink="http://www.w3.org/1999/xlink" x="0px" y="0px"
	 viewBox="0 1187.7 2000 1644.3" enable-background="new 0 1187.7 2000 1644.3" xml:space="preserve">
<g>
	<g>
		<path fill="#FFDD00" d="M2000,1387.9c-73.6,32.6-152.6,54.7-235.6,64.6c84.7-50.7,149.6-131.2,180.3-226.8
			c-79.5,47-167.2,81.1-260.7,99.6c-74.9-79.9-181.3-129.6-299.4-129.6c-226.6,0-410.3,183.7-410.3,410.2c0,32.1,3.6,63.5,10.6,93.5
			c-340.9-17.1-643.3-180.5-845.6-428.7c-35.4,60.5-55.5,131-55.5,206.2c0,142.3,72.5,268,182.5,341.4
			c-67.2-2.2-130.5-20.7-185.8-51.5v5.1c0,198.7,141.5,364.6,329.1,402.3c-34.4,9.2-70.6,14.4-108.1,14.4c-26.5,0-52.1-2.6-77.2-7.6
			c52.2,163.1,203.7,281.7,383.2,284.9C467,2576,290.1,2641.3,97.9,2641.3c-33.1,0-65.7-2-97.9-5.6
			c181.6,116.6,397.2,184.6,628.9,184.6c754.7,0,1167.3-625.1,1167.3-1167.3l-1.4-53.1C1875.4,1542.4,1945.1,1470.2,2000,1387.9z"/>
	</g>
</g>
</svg>
